<?xml version="1.0" encoding="UTF-8" standalone="no"?>
<svg viewBox="0 0 125 80" preserveAspectRatio="xMidYMid meet" version="1.1" xmlns="http://www.w3.org/2000/svg" xmlns:xlink="http://www.w3.org/1999/xlink">
    <title>Credit card Mastercard</title>
    <desc></desc>
    <defs></defs>
    <g id="cc-mastercard" stroke="none" stroke-width="1" fill="none" fill-rule="evenodd">
        <rect id="shape" fill="#F9F9F9" x="0" y="0" width="125" height="80"></rect>
        <g id="circles" transform="translate(25.000000, 17.000000)">
            <path d="M75.8961841,23.002526 C75.8997229,35.6456612 65.7419432,45.8964875 53.2076282,45.9000494 C40.6738188,45.9031024 30.5112365,35.6571101 30.5079505,23.0139749 L30.5079505,23.002526 C30.5046645,10.3593908 40.662697,0.107801284 53.1960008,0.104493827 C65.730063,0.10118637 75.8928981,10.3476875 75.8961841,22.9908227 L75.8961841,23.002526 Z" id="shape-2" fill="#FBB231"></path>
            <path d="M22.6134907,0.11032004 C10.1539954,0.190207842 0.0654744232,10.4153377 0.0654744232,23.0025006 C0.0654744232,35.6390209 10.2328594,45.8941723 22.759844,45.8941723 C28.6392537,45.8941723 33.9984645,43.6341616 38.0308902,39.9295556 C38.0308902,39.9295556 38.0303847,39.9290468 38.0293736,39.9285379 L38.0339234,39.9285379 C38.8599729,39.1696038 39.6304132,38.3506266 40.3384195,37.4772036 L35.6884788,37.4772036 C35.0676778,36.7205592 34.5034972,35.9328757 33.9961896,35.1192413 L42.0155425,35.1192413 C42.5031342,34.3318122 42.9447218,33.5141071 43.3367667,32.6681614 L32.6729432,32.6681614 C32.3092085,31.88175 31.9934998,31.0785468 31.7243007,30.2631315 L44.2859147,30.2631315 C45.043211,27.9807319 45.4539608,25.5393199 45.4539608,23.0022462 C45.4539608,21.3197683 45.2732309,19.6795242 44.9309815,18.1000864 L31.0580013,18.1000864 C31.2301371,17.2872152 31.4467602,16.4840121 31.7055958,15.6950564 L44.2722652,15.6950564 C43.9909332,14.8554712 43.664861,14.0372573 43.2935432,13.244231 L32.6714266,13.244231 C33.0546246,12.41813 33.4888819,11.6151813 33.9734403,10.839201 L41.9864741,10.839201 C41.453384,9.9823153 40.8631681,9.16359253 40.2251789,8.38837555 L35.7574848,8.38837555 C36.4483028,7.56838068 37.2083795,6.79596231 38.0339234,6.07595441 C34.0012449,2.37083955 28.6405175,0.11032004 22.759844,0.11032004 C22.7110596,0.11032004 22.6620224,0.11006562 22.6134907,0.11032004" id="shape-1" fill="#EC1C2E"></path>
        </g>
        <g id="characters" transform="translate(26.200445, 34.037037)" fill="#FFFFFF">
            <path d="M2.34695403,11.9214808 L3.81807028,3.17122228 L4.03393511,11.9214808 L5.69892528,11.9214808 L8.80394111,3.17122228 L7.42862434,11.9214808 L9.90222292,11.9214808 L11.8075965,0.315614973 L7.98193594,0.315614973 L5.59983979,7.43656944 L5.47598292,0.315614973 L1.94960097,0.315614973 L0.017181078,11.9214808 L2.34695403,11.9214808 Z" id="m"></path>
            <path d="M15.9478788,7.72157045 C15.9943883,8.13093183 15.6933403,10.0533275 14.2381485,10.0533275 C13.4879298,10.0533275 13.292792,9.47503139 13.292792,9.13334566 C13.292792,8.46625707 13.6519769,7.66483484 15.4226246,7.66483484 C15.8343855,7.66534368 15.8783673,7.71012156 15.9478788,7.72157045 M15.4302077,2.25637973 C13.7735589,2.25637973 12.5031413,2.79320541 12.5031413,2.79320541 L12.1528033,4.89293163 C12.1528033,4.89293163 13.2007841,4.46321667 14.7853937,4.46321667 C15.6852517,4.46321667 16.3437153,4.56523899 16.3437153,5.30280186 C16.3437153,5.75083504 16.2630819,5.9164623 16.2630819,5.9164623 C16.2630819,5.9164623 15.553559,5.85641924 15.2247064,5.85641924 C13.1348113,5.85641924 10.9395115,6.75604749 10.9395115,9.46816205 C10.9395115,11.605288 12.37979,12.0963181 13.2725705,12.0963181 C14.9769926,12.0963181 15.7120452,10.9804331 15.7512244,10.9771256 L15.6716022,11.9077931 L17.7991598,11.9077931 L18.7485606,5.1951823 C18.7485606,2.34771642 16.2858311,2.25637973 15.4302077,2.25637973" id="a"></path>
            <path d="M21.0097826,12.0467063 C21.5542473,12.0467063 24.6653296,12.1866371 24.6653296,8.9471104 C24.6653296,5.92002418 21.785531,6.51816502 21.785531,5.30152976 C21.785531,4.69601075 22.2549233,4.50545035 23.1128216,4.50545035 C23.4535544,4.50545035 24.7641623,4.61485084 24.7641623,4.61485084 L25.0692546,2.46245973 C25.0692546,2.46271415 24.2207087,2.27113608 22.8393255,2.27113608 C21.051995,2.27113608 19.2376183,2.99063514 19.2376183,5.45341835 C19.2376183,8.24414862 22.2632646,7.96403247 22.2632646,9.13970615 C22.2632646,9.92382783 21.4177519,9.98768719 20.7666187,9.98768719 C19.6395212,9.98768719 18.6244004,9.59791613 18.6208617,9.61623435 L18.298581,11.7469998 C18.3564652,11.7650636 18.9825743,12.0467063 21.0097826,12.0467063" id="s"></path>
            <path d="M28.7198726,11.7932787 L29.02269,9.72204753 C28.857379,9.72204753 28.6142151,9.7937939 28.3998669,9.7937939 C27.558904,9.7937939 27.465885,9.34245325 27.5197248,9.00865454 L28.1991682,4.78121592 L29.4774216,4.78121592 L29.7860527,2.4896572 L28.5811023,2.4896572 L28.8257828,1.06465217 L26.4098156,1.06465217 C26.3567341,1.11808032 24.9834395,9.07963765 24.9834395,10.0492313 C24.9834395,11.4839043 25.7821899,12.1235156 26.9082763,12.1133388 C27.7909461,12.1059606 28.4779725,11.8591735 28.7198726,11.7932787" id="t"></path>
            <path d="M33.7228053,4.40096016 C35.0864947,4.40096016 34.8347367,5.94656016 34.8347367,6.07173468 L32.1523508,6.07173468 C32.1523508,5.91195907 32.406131,4.40096016 33.7228053,4.40096016 M29.4856366,7.84376826 C29.4856366,11.2881029 31.7395788,12.1068256 33.6598658,12.1068256 C35.4325356,12.1068256 36.2123283,11.7066234 36.2123283,11.7066234 L36.6379915,9.35629369 C36.6379915,9.35629369 35.2897211,9.95545221 34.0718795,9.95545221 C31.4774572,9.95545221 31.9316833,8.0040527 31.9316833,8.0040527 L36.842229,8.0040527 C36.842229,8.0040527 37.1592014,6.42461487 37.1592014,5.7809329 C37.1592014,4.174781 36.3667703,2.2182931 33.7139584,2.2182931 C31.2843416,2.21880194 29.4856366,4.85917013 29.4856366,7.84376826" id="e"></path>
            <path d="M39.5757248,11.9376365 C40.279434,7.90304806 40.4096101,4.62713932 42.0877442,5.2270611 C42.3817147,3.66517823 42.6653217,3.06118574 42.9860857,2.40045764 C42.9860857,2.40045764 42.8354353,2.36890959 42.5197267,2.36890959 C41.4378748,2.36890959 40.6360912,3.86006376 40.6360912,3.86006376 L40.8514505,2.49052223 L38.6018054,2.49052223 L37.0945431,11.9376365 L39.5757248,11.9376365 Z" id="r"></path>
            <path d="M49.0242091,11.7922865 L49.4561915,9.13563544 C49.4561915,9.13563544 48.2707043,9.73504838 47.4570405,9.73504838 C45.7430132,9.73504838 45.0554812,8.41486428 45.0554812,6.99621973 C45.0554812,4.11898675 46.5301362,2.53624146 48.1723771,2.53624146 C49.4033627,2.53624146 50.39169,3.23335159 50.39169,3.23335159 L50.7860098,0.651754351 C50.7860098,0.651754351 49.32096,0.0536135111 48.0646975,0.0536135111 C45.2751375,0.0536135111 42.5614083,2.49451662 42.5614083,7.07916057 C42.5614083,10.1187134 44.0267109,12.1265941 46.9105537,12.1265941 C47.7257341,12.1265941 49.0242091,11.7922865 49.0242091,11.7922865" id="c"></path>
            <path d="M55.1178153,7.72157045 C55.1643248,8.13093183 54.863024,10.0533275 53.4075794,10.0533275 C52.6571079,10.0533275 52.4624757,9.47503139 52.4624757,9.13334566 C52.4624757,8.46625707 52.8216606,7.66483484 54.5920555,7.66483484 C55.0040692,7.66534368 55.0475454,7.71012156 55.1178153,7.72157045 M54.5993858,2.25637973 C52.942737,2.25637973 51.6723194,2.79320541 51.6723194,2.79320541 L51.3222342,4.89293163 C51.3222342,4.89293163 52.3704677,4.46321667 53.9550773,4.46321667 C54.8549354,4.46321667 55.5126406,4.56523899 55.5126406,5.30280186 C55.5126406,5.75083504 55.4327656,5.9164623 55.4327656,5.9164623 C55.4327656,5.9164623 54.7227371,5.85641924 54.3938845,5.85641924 C52.3042422,5.85641924 50.1091952,6.75604749 50.1091952,9.46816205 C50.1091952,11.605288 51.5492209,12.0963181 52.4420014,12.0963181 C54.1464235,12.0963181 54.8812234,10.9804331 54.9204026,10.9771256 L54.8410331,11.9077931 L56.9685907,11.9077931 L57.9177388,5.1951823 C57.9182443,2.34771642 55.4550093,2.25637973 54.5993858,2.25637973" id="a"></path>
            <path d="M59.8621905,11.9376365 C60.5658997,7.90304806 60.6965813,4.62713932 62.3742099,5.2270611 C62.6684332,3.66517823 62.9525457,3.06118574 63.2725514,2.40045764 C63.2725514,2.40045764 63.121901,2.36890959 62.8066979,2.36890959 C61.7248461,2.36890959 60.9230624,3.86006376 60.9230624,3.86006376 L61.1384217,2.49052223 L58.8885238,2.49052223 L57.3812616,11.9376365 L59.8621905,11.9376365 Z" id="r"></path>
            <path d="M67.9171081,6.6856241 C67.9171081,7.97298805 67.2851853,9.69235674 65.975083,9.69235674 C65.1055572,9.69235674 64.6980934,8.95581156 64.6980934,7.80049146 C64.6980934,5.91091595 65.5395618,4.66425916 66.6009393,4.66425916 C67.4709706,4.66400474 67.9171081,5.26647072 67.9171081,6.6856241 L67.9171081,6.6856241 Z M69.0391502,0.324875852 L68.5176875,3.58704593 C68.5176875,3.58704593 67.608477,2.31978114 66.1846285,2.31978114 C63.9706239,2.31978114 62.1251565,5.01230538 62.1251565,8.106304 C62.1251565,10.1037535 63.1096922,12.0602414 65.1217344,12.0602414 C66.5690904,12.0602414 67.3713796,11.0420535 67.3713796,11.0420535 L67.2652165,11.9116602 L69.6154638,11.9116602 L71.4614366,0.321059556 L69.0391502,0.324875852 Z" id="d"></path>
        </g>
    </g>
</svg>
