<?xml version="1.0" encoding="UTF-8" standalone="no"?>
<svg viewBox="0 0 675 60" preserveAspectRatio="xMidYMid meet" version="1.1" xmlns="http://www.w3.org/2000/svg" xmlns:xlink="http://www.w3.org/1999/xlink">
    <title>N°Indigo</title>
    <desc></desc>
    <defs></defs>
    <g id="numindigo" stroke="none" stroke-width="1" fill="none" fill-rule="evenodd">
        <path d="M118.117577,23.1893178 C119.106963,23.1893178 119.9981,22.854257 120.692734,22.1355896 C121.436493,21.4635643 121.783319,20.5992596 121.783319,19.6397673 C121.783319,18.6317293 121.436493,17.8169223 120.692734,17.0982549 C119.9981,16.3786357 119.106963,16.041671 118.117577,16.041671 C117.077099,16.041671 116.237054,16.3786357 115.494276,17.0982549 C114.751499,17.8169223 114.402709,18.6317293 114.402709,19.6397673 C114.402709,20.5992596 114.751499,21.4635643 115.494276,22.1355896 C116.237054,22.854257 117.077099,23.1893178 118.117577,23.1893178" id="Shape" fill="#39377E"></path>
        <path d="M261.681857,42.2839767 C263.414021,42.2839767 264.898593,41.6109995 266.140485,40.3173982 C267.328338,39.0209413 267.922756,37.1029085 267.922756,34.608038 C267.922756,32.1607615 267.328338,30.2912745 266.140485,28.9957695 C264.898593,27.6526705 263.414021,27.0291909 261.681857,27.0291909 C259.899585,27.0291909 258.413048,27.6526705 257.176068,28.9957695 C255.987232,30.2912745 255.393796,32.1607615 255.393796,34.655632 C255.393796,37.1029085 255.987232,39.0209413 257.176068,40.3173982 C258.413048,41.6109995 259.899585,42.2839767 261.681857,42.2839767" id="Shape" fill="#39377E"></path>
        <path d="M230.631611,41.7566367 C232.314649,41.7566367 233.703918,41.1341089 234.841663,39.8861978 C236.029518,38.6392385 236.573828,36.7668958 236.573828,34.2729772 C236.573828,31.7295611 236.029518,29.8105764 234.940897,28.564569 C233.852276,27.315706 232.462026,26.6941301 230.77997,26.6941301 C229.146056,26.6941301 227.809844,27.269064 226.770349,28.5160233 C225.678781,29.7620307 225.184578,31.6324695 225.184578,34.1292437 C225.184578,36.7668958 225.678781,38.6868323 226.770349,39.9347435 C227.809844,41.1341089 229.095949,41.7566367 230.631611,41.7566367" id="Shape" fill="#39377E"></path>
        <path d="M186.85492,42.4296139 C188.389599,42.4296139 189.725813,41.8051824 190.817381,40.5087255 C191.955126,39.2151243 192.499437,37.2942358 192.499437,34.7508196 C192.499437,31.8723427 191.955126,29.8105764 190.865523,28.564569 C189.826028,27.315706 188.438726,26.6941301 186.80383,26.6941301 C185.168934,26.6941301 183.832721,27.315706 182.7441,28.564569 C181.654497,29.7620307 181.110188,31.6324695 181.110188,34.0816499 C181.110188,36.7668958 181.506138,38.6868323 182.248916,39.8861978 C183.338518,41.5653094 184.871234,42.4296139 186.85492,42.4296139" id="Shape" fill="#39377E"></path>
        <path d="M24.0334547,44.7236383 L24.0334547,13.7305129 L47.8750288,29.216605 L24.0334547,44.7236383 L24.0334547,44.7236383 Z M8.2897233,29.9505024 C8.2897233,42.5238498 18.9420907,52.8421999 31.9180929,52.8421999 C44.8921301,52.8421999 55.4511591,42.5238498 55.4511591,29.9505024 C55.4511591,17.38477 44.8921301,7.15494447 31.9180929,7.15494447 C18.9420907,7.15494447 8.2897233,17.38477 8.2897233,29.9505024 L8.2897233,29.9505024 L8.2897233,29.9505024 Z" id="Shape" stroke="#FFFFFF" stroke-width="4" fill="#39377E"></path>
        <path d="M24.0334547,44.7236383 L47.8750288,29.216605 L24.0334547,13.7305129 L24.0334547,44.7236383" id="Shape" fill="#FFFFFF"></path>
        <path d="M24.0334547,44.7236383 L47.8750288,29.216605 L24.0334547,13.7305129 L24.0334547,44.7236383 L24.0334547,44.7236383 Z" id="Shape" stroke="#FFFFFF" stroke-width="1.092"></path>
        <path d="M82.8592427,24.6780539 L97.1714578,47.0833422 L104.35262,47.0833422 L104.35262,12.7310417 L97.715768,12.7310417 L97.715768,35.66367 L83.207051,12.7310417 L76.2223913,12.7310417 L76.2223913,47.0833422 L82.8592427,47.0833422 L82.8592427,24.6780539" id="Shape" fill="#FFFFFF"></path>
        <path d="M115.494276,17.0982549 C116.237054,16.3776838 117.077099,16.041671 118.117577,16.041671 C119.106963,16.041671 119.999083,16.3776838 120.693716,17.0982549 C121.436493,17.8178742 121.783319,18.6317293 121.783319,19.6397673 C121.783319,20.6002115 121.436493,21.4635643 120.693716,22.1355896 C119.999083,22.8552089 119.106963,23.1893178 118.117577,23.1893178 C117.077099,23.1893178 116.237054,22.8552089 115.494276,22.1355896 C114.751499,21.4635643 114.402709,20.6002115 114.402709,19.6397673 C114.402709,18.6317293 114.751499,17.8178742 115.494276,17.0982549 M118.117577,27.0767848 C120.247657,27.0767848 122.029929,26.3581174 123.565592,24.9169752 C125.051146,23.4310946 125.843049,21.7043893 125.843049,19.6397673 C125.843049,17.578001 125.051146,15.801798 123.565592,14.3625595 C122.029929,12.8747752 120.247657,12.1561079 118.117577,12.1561079 C115.988478,12.1561079 114.158064,12.8747752 112.670545,14.3140137 C111.134882,15.801798 110.393088,17.5294553 110.393088,19.6397673 C110.393088,21.7043893 111.134882,23.4310946 112.670545,24.9169752 C114.158064,26.3581174 115.988478,27.0767848 118.117577,27.0767848" id="Shape" fill="#FFFFFF"></path>
        <path d="M131.487566,12.7310417 L138.669709,12.7310417 L138.669709,47.0823903 L131.487566,47.0823903 L131.487566,12.7310417 L131.487566,12.7310417 Z" id="Shape" fill="#FFFFFF"></path>
        <path d="M152.189039,35.8074035 C152.189039,33.0250661 152.387506,31.1060814 152.733349,30.0989953 C153.081158,29.0909571 153.676558,28.2276045 154.615838,27.6041248 C155.557081,26.981597 156.646685,26.6941301 157.78443,26.6941301 C158.725675,26.6941301 159.516594,26.8845055 160.162103,27.315706 C160.805647,27.7478583 161.300832,28.3713379 161.547441,29.1870968 C161.845142,29.9552618 161.993501,31.6829191 161.993501,34.3672131 L161.993501,47.0833422 L168.778711,47.0833422 L168.778711,31.6324695 C168.778711,29.7153886 168.679477,28.2276045 168.432868,27.1719725 C168.184293,26.1648863 167.738234,25.2548916 167.096655,24.4381809 C166.452128,23.6214702 165.510885,22.9503966 164.27194,22.4230566 C163.032996,21.8947647 161.647658,21.6558435 160.162103,21.6558435 C156.744935,21.6558435 153.923169,23.0465362 151.692872,25.8764675 L151.692872,22.1822316 L145.403829,22.1822316 L145.403829,47.0833422 L152.189039,47.0833422 L152.189039,35.8074035" id="Shape" fill="#FFFFFF"></path>
        <path d="M182.745083,28.564569 C183.832721,27.315706 185.169916,26.6941301 186.804812,26.6941301 C188.438726,26.6941301 189.826028,27.315706 190.865523,28.564569 C191.955126,29.8115283 192.499437,31.8732945 192.499437,34.7508196 C192.499437,37.2942358 191.955126,39.2141724 190.817381,40.5087255 C189.72483,41.8042305 188.388617,42.4286621 186.855902,42.4286621 C184.872216,42.4286621 183.338518,41.5643575 182.248916,39.8861978 C181.505155,38.6868323 181.110188,36.7659439 181.110188,34.0816499 C181.110188,31.6334215 181.654497,29.7629826 182.745083,28.564569 M184.924289,47.658276 C186.359736,47.658276 187.795182,47.2746695 189.23161,46.6007404 C190.668039,45.9296668 191.905018,44.8273929 192.944513,43.4347965 L192.944513,47.0833422 L199.235521,47.0833422 L199.235521,12.7310417 L192.451294,12.7310417 L192.451294,25.1111581 C190.370339,22.8066631 187.894415,21.6558435 185.020574,21.6558435 C181.901107,21.6558435 179.277807,22.7581174 177.245977,24.9169752 C175.217095,27.1253305 174.1776,30.3379164 174.1776,34.5613961 C174.1776,38.6868323 175.217095,41.8994183 177.345211,44.2029614 C179.426166,46.5065045 181.950233,47.658276 184.924289,47.658276" id="Shape" fill="#FFFFFF"></path>
        <path d="M205.969641,12.7310417 L212.754852,12.7310417 L212.754852,18.8249603 L205.969641,18.8249603 L205.969641,12.7310417 L205.969641,12.7310417 Z" id="Shape" fill="#FFFFFF"></path>
        <path d="M205.969641,22.1822316 L212.754852,22.1822316 L212.754852,47.0823903 L205.969641,47.0823903 L205.969641,22.1822316 L205.969641,22.1822316 Z" id="Shape" fill="#FFFFFF"></path>
        <path d="M226.770349,28.5160233 C227.809844,27.269064 229.147039,26.6941301 230.780952,26.6941301 C232.463008,26.6941301 233.852276,27.315706 234.939915,28.564569 C236.029518,29.8105764 236.573828,31.7295611 236.573828,34.2729772 C236.573828,36.7659439 236.029518,38.6382866 234.841663,39.8852459 C233.703918,41.1341089 232.315632,41.7566367 230.632593,41.7566367 C229.096931,41.7566367 227.809844,41.1341089 226.770349,39.9337916 C225.678781,38.6868323 225.184578,36.7659439 225.184578,34.1292437 C225.184578,31.6324695 225.678781,29.7629826 226.770349,28.5160233 M228.750105,47.0833422 C231.86859,47.0833422 234.446695,45.7392914 236.475577,43.0511898 L236.475577,46.6987837 C236.475577,48.1370703 236.376344,49.1451084 236.127768,49.7209942 C235.831051,50.4872554 235.385974,51.0155474 234.791556,51.35156 C233.90042,51.8798519 232.564206,52.119725 230.780952,52.119725 C229.394631,52.119725 228.40328,51.8798519 227.757771,51.4486515 C227.312693,51.1135906 226.966851,50.4872554 226.866634,49.6248546 L219.094002,48.713908 L219.094002,49.5296668 C219.094002,51.7351665 219.984156,53.5589635 221.816536,54.9972501 C223.648916,56.4364886 226.718276,57.1561079 231.078652,57.1561079 C233.354144,57.1561079 235.28674,56.9666843 236.772295,56.4850344 C238.307957,56.0052882 239.495811,55.3827605 240.386947,54.517504 C241.279066,53.7036489 242.020861,52.5528292 242.517028,51.1135906 C243.013194,49.675304 243.259805,47.4659968 243.259805,44.539926 L243.259805,22.1831835 L236.870546,22.1831835 L236.870546,25.686092 C234.841663,22.9989424 232.216399,21.6558435 229.046823,21.6558435 C225.975498,21.6558435 223.402307,22.7581174 221.322334,24.9664727 C219.241379,27.1253305 218.201884,30.3379164 218.201884,34.5128504 C218.201884,37.8234796 218.994769,40.6048652 220.579556,42.8608144 C222.559313,45.6926494 225.332937,47.0833422 228.750105,47.0833422" id="Shape" fill="#FFFFFF"></path>
        <path d="M257.176068,28.9957695 C258.413048,27.6526705 259.898602,27.0291909 261.681857,27.0291909 C263.414021,27.0291909 264.899575,27.6526705 266.140485,28.9957695 C267.328338,30.2912745 267.922756,32.1607615 267.922756,34.608038 C267.922756,37.1029085 267.328338,39.0209413 266.140485,40.3173982 C264.899575,41.6109995 263.414021,42.2839767 261.681857,42.2839767 C259.898602,42.2839767 258.413048,41.6109995 257.176068,40.3173982 C255.987232,39.0209413 255.393796,37.1029085 255.393796,34.655632 C255.393796,32.1607615 255.987232,30.2912745 257.176068,28.9957695 M254.947737,46.075304 C257.07487,47.1318879 259.355274,47.6573241 261.681857,47.6573241 C265.494976,47.6573241 268.664551,46.4122687 271.14244,43.9145426 C273.666507,41.4682179 274.903487,38.347964 274.903487,34.5613961 C274.903487,30.8186145 273.666507,27.7478583 271.190583,25.3015335 C268.713677,22.8552089 265.547049,21.6558435 261.631748,21.6558435 C259.106699,21.6558435 256.82826,22.1831835 254.799378,23.2388154 C252.768531,24.3410894 251.18276,25.8774194 250.09414,27.9410894 C248.95443,30.0038075 248.410119,32.1141195 248.410119,34.2729772 C248.410119,37.1505024 248.95443,39.5977789 250.09414,41.5643575 C251.18276,43.5794817 252.816674,45.0682179 254.947737,46.075304" id="Shape" fill="#FFFFFF"></path>
        <path d="M55.4501767,29.9514543 C55.4501767,42.5238498 44.8921301,52.8431518 31.9190755,52.8431518 C18.9430732,52.8431518 8.2897233,42.5238498 8.2897233,29.9514543 C8.2897233,17.38477 18.9430732,7.15494447 31.9190755,7.15494447 C44.8921301,7.15494447 55.4501767,17.38477 55.4501767,29.9514543 L55.4501767,29.9514543 L55.4501767,29.9514543 Z M76.2233739,12.7310417 L83.2060685,12.7310417 L97.7167504,35.66367 L97.7167504,12.7310417 L104.35262,12.7310417 L104.35262,47.0833422 L97.1714578,47.0833422 L82.8592427,24.6780539 L82.8592427,47.0833422 L76.2233739,47.0833422 L76.2233739,12.7310417 L76.2233739,12.7310417 Z M112.670545,14.3140137 C114.158064,12.8757271 115.988478,12.1561079 118.117577,12.1561079 C120.246675,12.1561079 122.029929,12.8757271 123.564609,14.3625595 C125.051146,15.801798 125.84403,17.5770492 125.84403,19.6397673 C125.84403,21.7043893 125.051146,23.4310946 123.564609,24.9169752 C122.029929,26.3581174 120.246675,27.0767848 118.117577,27.0767848 C115.988478,27.0767848 114.158064,26.3581174 112.670545,24.9169752 C111.134882,23.4310946 110.392105,21.7043893 110.392105,19.6397673 C110.392105,17.5285035 111.134882,15.801798 112.670545,14.3140137 L112.670545,14.3140137 L112.670545,14.3140137 Z M131.488547,12.7310417 L138.670692,12.7310417 L138.670692,47.0823903 L131.488547,47.0823903 L131.488547,12.7310417 L131.488547,12.7310417 Z M145.403829,22.1831835 L151.691889,22.1831835 L151.691889,25.8774194 C153.923169,23.0465362 156.744935,21.6558435 160.162103,21.6558435 C161.647658,21.6558435 163.032996,21.8947647 164.27194,22.4240085 C165.509902,22.9513485 166.452128,23.622422 167.096655,24.4381809 C167.738234,25.2548916 168.184293,26.1648863 168.432868,27.1719725 C168.679477,28.2276045 168.778711,29.7153886 168.778711,31.6334215 L168.778711,47.0833422 L161.993501,47.0833422 L161.993501,34.368165 C161.993501,31.6829191 161.845142,29.9552618 161.548424,29.1870968 C161.301814,28.3722898 160.805647,27.7488102 160.162103,27.315706 C159.516594,26.8845055 158.725675,26.6941301 157.78443,26.6941301 C156.646685,26.6941301 155.557081,26.981597 154.615838,27.6041248 C153.676558,28.2276045 153.081158,29.091909 152.733349,30.0989953 C152.387506,31.1070333 152.189039,33.0250661 152.189039,35.8064516 L152.189039,47.0833422 L145.403829,47.0833422 L145.403829,22.1831835 L145.403829,22.1831835 Z M177.245977,24.9169752 C179.276825,22.7581174 181.901107,21.6558435 185.020574,21.6558435 C187.894415,21.6558435 190.370339,22.8066631 192.451294,25.1111581 L192.451294,12.7310417 L199.235521,12.7310417 L199.235521,47.0833422 L192.944513,47.0833422 L192.944513,43.4347965 C191.905018,44.8273929 190.668039,45.9296668 189.230627,46.6007404 C187.794199,47.2746695 186.358753,47.658276 184.924289,47.658276 C181.951216,47.658276 179.427148,46.5065045 177.345211,44.2029614 C175.217095,41.8994183 174.1776,38.6868323 174.1776,34.5613961 C174.1776,30.3379164 175.217095,27.1253305 177.245977,24.9169752 L177.245977,24.9169752 L177.245977,24.9169752 Z M205.969641,22.1831835 L212.754852,22.1831835 L212.754852,47.0833422 L205.969641,47.0833422 L205.969641,22.1831835 L205.969641,22.1831835 Z M205.969641,12.7310417 L212.754852,12.7310417 L212.754852,18.8249603 L205.969641,18.8249603 L205.969641,12.7310417 L205.969641,12.7310417 Z M221.323317,24.9674246 C223.403289,22.7581174 225.976481,21.6558435 229.046823,21.6558435 C232.215416,21.6558435 234.841663,22.9989424 236.871528,25.6870439 L236.871528,22.1831835 L243.259805,22.1831835 L243.259805,44.5389741 C243.259805,47.4659968 243.013194,49.675304 242.517028,51.1135906 C242.021843,52.5528292 241.279066,53.7036489 240.38793,54.5184558 C239.496793,55.3827605 238.30894,56.0052882 236.772295,56.4850344 C235.28674,56.9666843 233.354144,57.1561079 231.07767,57.1561079 C226.719258,57.1561079 223.649899,56.4364886 221.816536,54.998202 C219.983173,53.5589635 219.09302,51.7351665 219.09302,49.5296668 L219.09302,48.713908 L226.866634,49.6248546 C226.967833,50.4872554 227.312693,51.1135906 227.757771,51.4486515 C228.404261,51.8798519 229.393649,52.119725 230.77997,52.119725 C232.563224,52.119725 233.90042,51.8798519 234.792538,51.35156 C235.385974,51.0155474 235.831051,50.4872554 236.128751,49.7219461 C236.377326,49.1451084 236.475577,48.1370703 236.475577,46.6987837 L236.475577,43.050238 C234.446695,45.7383395 231.86859,47.0833422 228.749122,47.0833422 C225.33392,47.0833422 222.559313,45.6916975 220.580539,42.8608144 C218.993787,40.6048652 218.201884,37.8244315 218.201884,34.5128504 C218.201884,30.3379164 219.240396,27.1253305 221.323317,24.9674246 L221.323317,24.9674246 L221.323317,24.9674246 Z M250.095123,27.9410894 C251.18276,25.8774194 252.767549,24.3410894 254.799378,23.2388154 C256.82826,22.1831835 259.106699,21.6558435 261.632731,21.6558435 C265.546066,21.6558435 268.713677,22.8552089 271.189601,25.3015335 C273.666507,27.7488102 274.903487,30.8186145 274.903487,34.5613961 C274.903487,38.347964 273.666507,41.4682179 271.14244,43.9145426 C268.664551,46.4113168 265.494976,47.658276 261.682839,47.658276 C259.355274,47.658276 257.07487,47.1318879 254.947737,46.0743522 C252.816674,45.067266 251.18276,43.5794817 250.095123,41.5643575 C248.955412,39.5977789 248.411102,37.1505024 248.411102,34.2729772 C248.411102,32.1141195 248.955412,30.0038075 250.095123,27.9410894 L250.095123,27.9410894 L250.095123,27.9410894 Z M312.454015,59.0827075 L32.440788,59.0827075 C13.6827176,59.0827075 0.808896387,46.0077208 0.808896387,29.9514543 C0.808896387,13.8980434 13.8320591,0.913484929 32.440788,0.913484929 L312.454015,0.913484929 L312.454015,0.912533051 L625.874527,0.912533051 L625.874527,0.913484929 L625.874527,0.913484929 L641.866834,0.913484929 C661.945397,0.913484929 674.724898,13.8980434 674.724898,29.953358 C674.724898,46.0096245 661.848128,59.0846114 641.95919,59.0846114 L621.782867,59.0846114 L312.454015,59.0846114 L312.454015,59.0827075 L312.454015,59.0827075 Z M317.390142,53.074458 L317.390142,53.0735061 L287.749797,53.0735061 C295.187393,47.7953464 299.682374,39.4026441 299.682374,29.9514543 C299.682374,20.5059757 295.187393,12.1532523 287.660388,6.8769963 L312.454015,6.8769963 L312.454015,6.87890005 L621.782867,6.87890005 L640.826357,6.87890005 C657.54179,6.87890005 667.526051,16.7850873 667.526051,29.953358 C667.526051,43.2072977 657.395396,53.0716023 640.543394,53.0716023 L617.691207,53.0716023 L617.691207,53.074458 L317.390142,53.074458 L317.390142,53.074458 Z" id="Shape" fill="#39377E"></path>
        <path d="M325.715927,20.8648335 C325.141159,21.2931782 324.69903,22.1070333 324.38954,23.3063987 C323.94741,24.8056055 323.771541,27.3756742 323.771541,30.9737705 C323.771541,34.5709149 323.94741,37.0553146 324.301114,38.3841354 C324.69903,39.7110524 325.141159,40.6115283 325.715927,41.0817556 C326.290695,41.5101005 326.953889,41.7252248 327.660313,41.7252248 C328.412915,41.7252248 329.07611,41.5101005 329.649895,41.0817556 C330.225646,40.6115283 330.668757,39.7967213 330.976283,38.6401904 C331.375182,37.1409836 331.596246,34.5709149 331.596246,30.9737705 C331.596246,27.3756742 331.419394,24.8912745 331.064709,23.5634056 C330.668757,22.1927023 330.181432,21.2931782 329.649895,20.8648335 C329.07611,20.3936541 328.412915,20.1794817 327.660313,20.1794817 C326.953889,20.1794817 326.290695,20.3936541 325.715927,20.8648335 M334.868002,18.4661025 C336.901797,20.9933369 337.962907,25.1482814 337.962907,30.9737705 C337.962907,36.7554733 336.901797,40.9532523 334.868002,43.4795347 C333.142716,45.5784241 330.755218,46.6054997 327.660313,46.6054997 C324.610604,46.6054997 322.13468,45.4508725 320.233525,43.1806452 C318.332368,40.8675833 317.403897,36.7983077 317.403897,30.930936 C317.403897,25.1482814 318.420794,20.9933369 320.498802,18.4232681 C322.223106,16.3672131 324.610604,15.2963511 327.660313,15.2963511 C330.755218,15.2963511 333.142716,16.3672131 334.868002,18.4661025" id="Shape" fill="#39377E"></path>
        <path d="M371.523465,26.3685881 C372.186659,27.0111052 373.114148,27.3537811 374.219471,27.3537811 C375.369989,27.3537811 376.298461,27.0111052 377.004885,26.3257536 C377.712292,25.6832364 378.021783,24.7408779 378.021783,23.5843469 C378.021783,22.4706504 377.712292,21.6139608 377.004885,20.9286092 C376.342674,20.286092 375.41322,19.9434162 374.307897,19.9434162 C373.158361,19.9434162 372.230872,20.286092 371.523465,20.9714437 C370.815075,21.6139608 370.462355,22.5134849 370.462355,23.6271814 C370.462355,24.7846642 370.815075,25.6832364 371.523465,26.3685881 M371.213974,40.5468007 C372.05402,41.4453728 373.114148,41.8737176 374.397305,41.8737176 C375.678497,41.8737176 376.695395,41.4453728 377.536423,40.5877313 C378.332256,39.6891591 378.72919,38.4460074 378.72919,36.8192491 C378.72919,35.3628767 378.332256,34.2063459 377.49221,33.3496563 C376.651182,32.4929667 375.590071,32.0208355 374.307897,32.0208355 C372.849853,32.0208355 371.744529,32.5358012 370.99291,33.5209942 C370.28452,34.5061872 369.9318,35.5770492 369.9318,36.7335801 C369.9318,38.3622422 370.328734,39.6034903 371.213974,40.5468007 M365.819015,26.8826018 C365.112591,25.7689054 364.758887,24.5257536 364.758887,23.1988365 C364.758887,20.8857747 365.55472,19.0010576 367.234811,17.5028027 C368.87069,16.0454786 371.213974,15.2754099 374.219471,15.2754099 C377.226932,15.2754099 379.570218,16.0454786 381.249326,17.5028027 C382.886187,19.0010576 383.724268,20.8857747 383.724268,23.1988365 C383.724268,24.6123744 383.371546,25.8974087 382.575714,26.9682707 C381.825076,28.0819672 380.763966,28.9377049 379.391401,29.5383395 C381.116688,30.2236911 382.487288,31.2079323 383.371546,32.5358012 C384.300018,33.8208355 384.742148,35.3628767 384.742148,37.0762559 C384.742148,39.9033315 383.812694,42.173559 381.957716,43.9726071 C380.09979,45.7288208 377.623866,46.6273929 374.529944,46.6273929 C371.656104,46.6273929 369.22341,45.9001586 367.323237,44.4 C365.068378,42.6885246 363.963054,40.3316764 363.963054,37.2913802 C363.963054,35.6627181 364.360971,34.1216288 365.200034,32.7499735 C366.085275,31.3364357 367.410681,30.2665256 369.22341,29.5383395 C367.67694,28.8948705 366.527404,27.9962983 365.819015,26.8826018" id="Shape" fill="#39377E"></path>
        <path d="M413.478583,46.3513485 L392.211184,46.3513485 C392.432249,44.2952935 393.140638,42.3249075 394.290174,40.482073 C395.43971,38.6411422 397.694569,36.1986251 401.097982,33.1164464 C403.839184,30.6739291 405.518292,29.0033844 406.138256,28.1038604 C406.978301,26.904495 407.376218,25.7051295 407.376218,24.5057642 C407.376218,23.2207298 407.022514,22.1927023 406.315107,21.5073506 C405.563487,20.7791645 404.54659,20.4364886 403.263433,20.4364886 C402.026453,20.4364886 401.009556,20.821999 400.257936,21.5501851 C399.506317,22.2783712 399.064188,23.5205712 398.975762,25.2339503 L392.91859,24.6342675 C393.273277,21.4216816 394.42183,19.0657853 396.322986,17.6950819 C398.225124,16.2815442 400.567427,15.5543099 403.441267,15.5543099 C406.536172,15.5543099 409.012095,16.3672131 410.780612,17.9949233 C412.594325,19.6226335 413.478583,21.6786885 413.478583,24.0774194 C413.478583,25.4909571 413.212324,26.7759915 412.725981,28.0610259 C412.195426,29.3032258 411.399593,30.5882602 410.294271,31.9580116 C409.54265,32.8575357 408.217246,34.1873083 406.315107,35.8569011 C404.368756,37.5702803 403.175989,38.6839767 402.645434,39.2398731 C402.159092,39.7976732 401.761176,40.3535695 401.407472,40.9113697 L413.478583,40.9113697 L413.478583,46.3513485" id="Shape" fill="#39377E"></path>
            <path d="M426.739513,37.3342147 C426.916365,38.6630355 427.44692,39.6901111 428.286966,40.4611317 C429.127011,41.2321523 430.099695,41.6176626 431.205019,41.6176626 C432.487193,41.6176626 433.548304,41.1464834 434.432562,40.1184558 C435.315839,39.1342147 435.75895,37.6331042 435.75895,35.6208355 C435.75895,33.7370703 435.315839,32.3225806 434.432562,31.3802221 C433.592517,30.4388154 432.442981,29.9666843 431.028167,29.9666843 C429.303863,29.9666843 427.756411,30.7377049 426.341597,32.2378635 L421.434945,31.5525119 L424.528867,15.5752512 L440.579141,15.5752512 L440.579141,21.0571126 L429.127011,21.0571126 L428.19854,26.283871 C429.524928,25.6404019 430.939742,25.2977261 432.354555,25.2977261 C435.007331,25.2977261 437.306403,26.2410365 439.163346,28.1248017 C441.064501,30.0533052 441.992973,32.4939186 441.992973,35.5351665 C441.992973,38.0633527 441.242336,40.2897938 439.737131,42.2601798 C437.659123,45.0015864 434.785284,46.3285035 431.160806,46.3285035 C428.242753,46.3285035 425.856238,45.5584347 423.998312,44.058276 C422.141369,42.5600211 421.080259,40.5039662 420.682343,37.9338975 L426.739513,37.3342147" id="Shape" fill="#39377E"></path>
        <path d="M484.4744,17.4246495 C486.534667,19.9978429 487.515745,24.0958917 487.515745,29.9094029 C487.515745,35.722914 486.436558,39.9162663 484.4744,42.3941562 C482.708457,44.4908324 480.353867,45.5391705 477.312521,45.5391705 C474.271175,45.5391705 471.818477,44.3955289 469.856319,42.1082458 C467.992268,39.8209629 467.011189,35.722914 467.011189,29.8140995 C467.011189,24.0005883 467.992268,19.9025395 470.052534,17.3293461 C471.818477,15.2326699 474.173067,14.1843318 477.214413,14.1843318 C480.353867,14.2796353 482.806565,15.3279734 484.4744,17.4246495 M475.350362,19.8072361 C474.761715,20.2837533 474.369283,21.046181 473.976851,22.285126 C473.584419,23.8099814 473.388204,26.3831748 473.388204,30.0047063 C473.388204,33.6262379 473.584419,36.1041278 473.878743,37.4383763 C474.271175,38.7726247 474.761715,39.6303559 475.252255,40.1068732 C475.840903,40.488087 476.527657,40.7739974 477.214413,40.7739974 C477.999277,40.7739974 478.587924,40.5833905 479.176572,40.1068732 C479.76522,39.6303559 480.157651,38.8679282 480.550083,37.6289832 C480.942515,36.1041278 481.13873,33.5309344 481.13873,29.9094029 C481.13873,26.2878713 480.942515,23.8099814 480.648191,22.4757329 C480.255759,21.1414845 479.76522,20.1884498 479.274679,19.8072361 C478.686033,19.3307187 477.999277,19.1401118 477.312521,19.1401118 C476.625766,19.1401118 475.93901,19.3307187 475.350362,19.8072361" id="Shape-7" fill="#39377E"></path>
        <path d="M516.850017,45.2258065 L495.658704,45.2258065 C495.85492,43.1364456 496.541676,41.2370267 497.718971,39.3376077 C498.896265,37.5331597 501.152748,35.0639151 504.488418,32.0248447 C507.23544,29.5556001 508.903274,27.9410939 509.491922,26.9913845 C510.374893,25.7567622 510.767325,24.6171108 510.767325,23.3824885 C510.767325,22.1478661 510.374893,21.1031858 509.688137,20.4383891 C508.903274,19.6786216 507.922195,19.3937087 506.646792,19.3937087 C505.371389,19.3937087 504.39031,19.7735925 503.605446,20.5333601 C502.820583,21.2931277 502.428151,22.52775 502.330043,24.237227 L496.247352,23.6674014 C496.639783,20.4383891 497.718971,18.1590863 499.681129,16.7345222 C501.54518,15.309958 503.89977,14.6451613 506.7449,14.6451613 C509.884354,14.6451613 512.337052,15.4998999 514.102995,17.114406 C515.868938,18.7289121 516.751909,20.8182729 516.751909,23.1925466 C516.751909,24.6171108 516.457585,25.8517332 515.967045,27.1813264 C515.476506,28.4159487 514.691642,29.745542 513.514347,31.0751353 C512.729484,31.9298737 511.45408,33.2594671 509.59003,34.9689441 C507.627872,36.6784212 506.450576,37.8180726 505.960037,38.3878982 C505.469497,38.9577239 505.077066,39.5275496 504.684633,40.0973752 L516.751909,40.0973752 L516.751909,45.2258065 L516.850017,45.2258065 L516.850017,45.2258065 Z" id="Shape-2" fill="#39377E"></path>
        <path d="M537.256466,39.6029448 L524.306219,39.6029448 L524.306219,34.3609593 L538.04133,14.4608295 L543.142942,14.4608295 L543.142942,34.2638856 L547.067259,34.2638856 L547.067259,39.5058709 L543.142942,39.5058709 L543.142942,45.8156682 L537.354574,45.8156682 L537.354574,39.6029448 L537.256466,39.6029448 L537.256466,39.6029448 Z M537.256466,23.6828409 L529.996479,34.3609593 L537.256466,34.3609593 L537.256466,23.6828409 L537.256466,23.6828409 Z" id="Shape-3" fill="#39377E"></path>
        <path d="M587.487727,17.4246495 C589.547993,19.9978429 590.62718,24.0958917 590.62718,29.9094029 C590.62718,35.722914 589.547993,39.9162663 587.487727,42.3941562 C585.721784,44.4908324 583.367193,45.5391705 580.325848,45.5391705 C577.284502,45.5391705 574.831803,44.3955289 572.869645,42.1082458 C571.005594,39.8209629 570.024515,35.722914 570.024515,29.8140995 C570.024515,24.0005883 571.005594,19.9025395 573.163968,17.3293461 C574.929911,15.2326699 577.284502,14.1843318 580.325848,14.1843318 C583.367193,14.2796353 585.819892,15.3279734 587.487727,17.4246495 M578.363689,19.8072361 C577.775041,20.2837533 577.382609,21.046181 576.990178,22.285126 C576.499638,23.8099814 576.401531,26.3831748 576.401531,30.0047063 C576.401531,33.6262379 576.597746,36.1041278 576.89207,37.4383763 C577.284502,38.7726247 577.775041,39.6303559 578.265581,40.1068732 C578.854228,40.488087 579.540984,40.7739974 580.227739,40.7739974 C581.012603,40.7739974 581.601251,40.5833905 582.189898,40.1068732 C582.778545,39.6303559 583.170977,38.8679282 583.465301,37.6289832 C583.857733,36.1041278 584.053949,33.5309344 584.053949,29.9094029 C584.053949,26.2878713 583.857733,23.8099814 583.56341,22.4757329 C583.170977,21.1414845 582.680438,20.1884498 582.189898,19.8072361 C581.601251,19.3307187 580.914495,19.1401118 580.227739,19.1401118 C579.639092,19.1401118 578.952337,19.3307187 578.363689,19.8072361" id="Shape-4" fill="#39377E"></path>
        <path d="M619.863343,45.0322581 L598.67203,45.0322581 C598.868247,42.956121 599.555001,41.0687237 600.732297,39.1813264 C601.909592,37.388299 604.166074,34.9346824 607.501744,31.9148467 C610.248766,29.4612303 611.916601,27.8569425 612.505249,26.9132439 C613.38822,25.6864356 613.780651,24.5539972 613.780651,23.327189 C613.780651,22.1003807 613.38822,21.0623122 612.701464,20.4017231 C611.916601,19.6467642 610.935521,19.3636546 609.660119,19.3636546 C608.384715,19.3636546 607.403636,19.7411341 606.618773,20.496093 C605.833909,21.2510519 605.441478,22.4778602 605.34337,24.1765177 L599.260678,23.6102986 C599.65311,20.4017231 600.732297,18.1368463 602.694455,16.7212984 C604.558506,15.3057504 606.913096,14.6451613 609.758226,14.6451613 C612.89768,14.6451613 615.350379,15.4944901 617.116322,17.0987778 C618.882264,18.7030655 619.765235,20.7792026 619.765235,23.1384492 C619.765235,24.5539972 619.470911,25.7808055 618.980372,27.1019836 C618.489833,28.3287918 617.704969,29.64997 616.527674,30.9711481 C615.74281,31.8204768 614.467407,33.141655 612.603356,34.8403126 C610.641198,36.5389701 609.463903,37.6714086 608.973363,38.2376277 C608.482823,38.8038469 608.090391,39.3700662 607.69796,39.9362853 L619.765235,39.9362853 L619.765235,45.0322581 L619.863343,45.0322581 L619.863343,45.0322581 Z" id="Shape-5" fill="#39377E"></path>
        <path d="M633.107914,36.1994313 C633.30413,37.6289832 633.794669,38.7726247 634.677641,39.5350525 C635.462504,40.2974801 636.443584,40.678694 637.620878,40.678694 C638.896282,40.678694 639.877362,40.2021766 640.760332,39.3444455 C641.643303,38.4867143 642.035736,37.2477694 642.035736,35.6276106 C642.035736,34.1980586 641.643303,32.9591136 640.760332,32.1013824 C639.877362,31.2436513 638.99439,30.8624375 637.718986,30.8624375 C636.934123,30.8624375 635.953044,30.957741 634.971965,31.2436513 L635.65872,26.4784783 C637.326555,26.4784783 638.50385,26.1925679 639.386821,25.4301402 C640.269793,24.6677125 640.662225,23.714678 640.662225,22.4757329 C640.662225,21.4273949 640.367901,20.6649672 639.779253,19.9978429 C639.092497,19.3307187 638.307634,19.0448083 637.228447,19.0448083 C636.14926,19.0448083 635.266289,19.4260222 634.579533,20.0931464 C633.794669,20.8555741 633.402237,21.8086087 633.206022,23.1428572 L627.61387,22.1898225 C628.006301,20.3790568 628.594949,18.8542014 629.379812,17.8058634 C630.164676,16.6622218 631.243863,15.8044907 632.617374,15.1373664 C633.990885,14.5655457 635.560612,14.1843318 637.326555,14.1843318 C640.269793,14.1843318 642.624383,15.1373664 644.488433,16.9481322 C645.960053,18.4729875 646.646808,20.1884498 646.646808,22.094519 C646.646808,24.763016 645.175189,26.9549956 642.133844,28.4798509 C643.899786,28.8610648 645.371405,29.718796 646.450592,31.0530444 C647.52978,32.3872928 648.118428,34.0074517 648.118428,35.8182175 C648.118428,38.4867143 647.137348,40.8693009 645.077081,42.6800666 C643.016814,44.5861358 640.564116,45.5391705 637.522771,45.5391705 C634.677641,45.5391705 632.224942,44.7767428 630.459,43.156584 C628.594949,41.5364251 627.417654,39.439749 627.221438,36.8665555 L633.107914,36.1994313 L633.107914,36.1994313 Z" id="Shape-6" fill="#39377E"></path>
    </g>
</svg>
