<?xml version="1.0" encoding="UTF-8" standalone="no"?>
<svg viewBox="0 0 125 80" preserveAspectRatio="xMidYMid meet" version="1.1" xmlns="http://www.w3.org/2000/svg" xmlns:xlink="http://www.w3.org/1999/xlink">
    <title>Credit card VISA</title>
    <desc></desc>
    <defs></defs>
    <g id="cc-visa" stroke="none" stroke-width="1" fill="none" fill-rule="evenodd">
        <rect id="shape" fill="#F9F9F9" x="0" y="0" width="125" height="80"></rect>
        <g id="characters" transform="translate(25.000000, 28.000000)">
            <path d="M21.4,0.4 L15.6,16.6 L14.9,13.1 L12.8,2.5 C12.8,2.5 12.6,0.4 9.9,0.4 L0.2,0.4 L0.1,0.8 C0.1,0.8 3.1,1.4 6.5,3.5 L11.9,24 L18.3,24 L28,0.4 L21.4,0.4 L21.4,0.4 Z" id="Shape" fill="#0066B2"></path>
            <path d="M32.7,24 L26.6,24 L30.4,0.4 L36.6,0.4 L32.7,24 Z" id="Shape" fill="#0066B2"></path>
            <path d="M53.9,6.1 L54.8,1 C54.8,1 52.1,0 49.3,0 C46.3,0 39,1.3 39,7.8 C39,13.9 47.5,14 47.5,17.1 C47.5,20.3 39.9,19.7 37.4,17.7 L36.5,23 C36.5,23 39.2,24.3 43.4,24.3 C47.6,24.3 53.9,22.1 53.9,16.2 C53.9,10.1 45.3,9.5 45.3,6.9 C45.4,4.3 51.3,4.7 53.9,6.1 L53.9,6.1 Z" id="Shape" fill="#0066B2"></path>
            <path d="M69.6,24 L75.2,24 L70.3,0.5 L65.4,0.5 C63.1,0.5 62.6,2.3 62.6,2.3 L53.5,24 L59.9,24 L61.2,20.5 L69,20.5 L69.6,24 L69.6,24 Z M62.9,15.6 L66.1,6.8 L67.9,15.6 L62.9,15.6 L62.9,15.6 Z" id="Shape" fill="#0066B2"></path>
            <path d="M14.9,13.1 L12.8,2.5 C12.8,2.5 12.6,0.4 9.9,0.4 L0.2,0.4 L0.1,0.8 C0.1,0.8 4.7,1.8 9.2,5.4 C13.5,8.8 14.9,13.1 14.9,13.1 L14.9,13.1 Z" id="shape" fill="#F9A533"></path>
        </g>
    </g>
</svg>
